{

    "baddies": [
        {
            "name": "flyer",
            "x": 190,
            "y": 434,
            "endX": 736,
            "speed": 3,
            "flipped": false    
        },
        {
            "name": "flyer",
            "x": 18,
            "y": 246,
            "endX": 596,
            "speed": 3,
            "flipped": false               
        }       
    ],
    "animations": {
                "flytrap": {
                    "sequence": [1,2,3,4,5,6,7,8,9,10,11,10,9,8,7,6,5,4,3,2,1],
                    "count": 0,
                    "time": 800,
                    "loopCount": 0,
                    "frames": [               
                        {
                                "filename": "ftframe1",
                                "frame": {"x":2,"y":2,"w":144,"h":79},
                                "rotated": false,
                                "trimmed": false,
                                "spriteSourceSize": {"x":0,"y":0,"w":144,"h":79},
                                "sourceSize": {"w":144,"h":79}
                        },
                        {
                                "filename": "ftframe2",
                                "frame": {"x":2,"y":83,"w":144,"h":79},
                                "rotated": false,
                                "trimmed": false,
                                "spriteSourceSize": {"x":0,"y":0,"w":144,"h":79},
                                "sourceSize": {"w":144,"h":79}
                        },
                        {
                                "filename": "ftframe3",
                                "frame": {"x":148,"y":83,"w":144,"h":79},
                                "rotated": false,
                                "trimmed": false,
                                "spriteSourceSize": {"x":0,"y":0,"w":144,"h":79},
                                "sourceSize": {"w":144,"h":79}
                        },
                        {
                                "filename": "ftframe4",
                                "frame": {"x":294,"y":83,"w":144,"h":79},
                                "rotated": false,
                                "trimmed": false,
                                "spriteSourceSize": {"x":0,"y":0,"w":144,"h":79},
                                "sourceSize": {"w":144,"h":79}
                        },
                        {
                                "filename": "ftframe5",
                                "frame": {"x":2,"y":164,"w":144,"h":79},
                                "rotated": false,
                                "trimmed": false,
                                "spriteSourceSize": {"x":0,"y":0,"w":144,"h":79},
                                "sourceSize": {"w":144,"h":79}
                        },
                        {
                                "filename": "ftframe6",
                                "frame": {"x":148,"y":164,"w":144,"h":79},
                                "rotated": false,
                                "trimmed": false,
                                "spriteSourceSize": {"x":0,"y":0,"w":144,"h":79},
                                "sourceSize": {"w":144,"h":79}
                        },
                        {
                                "filename": "ftframe7",
                                "frame": {"x":294,"y":164,"w":144,"h":79},
                                "rotated": false,
                                "trimmed": false,
                                "spriteSourceSize": {"x":0,"y":0,"w":144,"h":79},
                                "sourceSize": {"w":144,"h":79}
                        },
                        {
                                "filename": "ftframe8",
                                "frame": {"x":2,"y":245,"w":144,"h":79},
                                "rotated": false,
                                "trimmed": false,
                                "spriteSourceSize": {"x":0,"y":0,"w":144,"h":79},
                                "sourceSize": {"w":144,"h":79}
                        },
                        {
                                "filename": "ftframe9",
                                "frame": {"x":148,"y":245,"w":144,"h":79},
                                "rotated": false,
                                "trimmed": false,
                                "spriteSourceSize": {"x":0,"y":0,"w":144,"h":79},
                                "sourceSize": {"w":144,"h":79}
                        },
                        {
                                "filename": "ftframe10",
                                "frame": {"x":148,"y":2,"w":144,"h":79},
                                "rotated": false,
                                "trimmed": false,
                                "spriteSourceSize": {"x":0,"y":0,"w":144,"h":79},
                                "sourceSize": {"w":144,"h":79}
                        },
                        {
                                "filename": "ftframe11",
                                "frame": {"x":294,"y":2,"w":144,"h":79},
                                "rotated": false,
                                "trimmed": false,
                                "spriteSourceSize": {"x":0,"y":0,"w":144,"h":79},
                                "sourceSize": {"w":144,"h":79}
                        }
                    ]
                },
                "clive": {
                    "sequence": [2,3,4,5],
                    "count": 0,
                    "time": 250,
                    "loopCount": 10,
                    "frames": [               
                        {
                                "filename": "clive0.png",
                                "frame": {"x":2,"y":2,"w":440,"h":330},
                                "rotated": false,
                                "trimmed": false,
                                "spriteSourceSize": {"x":0,"y":0,"w":440,"h":330},
                                "sourceSize": {"w":440,"h":330}
                        },
                        {
                                "filename": "clive1.png",
                                "frame": {"x":444,"y":2,"w":440,"h":330},
                                "rotated": false,
                                "trimmed": false,
                                "spriteSourceSize": {"x":0,"y":0,"w":440,"h":330},
                                "sourceSize": {"w":440,"h":330}
                        },
                        {
                                "filename": "clive2.png",
                                "frame": {"x":2,"y":334,"w":440,"h":330},
                                "rotated": false,
                                "trimmed": false,
                                "spriteSourceSize": {"x":0,"y":0,"w":440,"h":330},
                                "sourceSize": {"w":440,"h":330}
                        },
                        {
                                "filename": "clive3.png",
                                "frame": {"x":444,"y":334,"w":440,"h":330},
                                "rotated": false,
                                "trimmed": false,
                                "spriteSourceSize": {"x":0,"y":0,"w":440,"h":330},
                                "sourceSize": {"w":440,"h":330}
                        },
                        {
                                "filename": "clive4.png",
                                "frame": {"x":2,"y":666,"w":440,"h":330},
                                "rotated": false,
                                "trimmed": false,
                                "spriteSourceSize": {"x":0,"y":0,"w":440,"h":330},
                                "sourceSize": {"w":440,"h":330}
                        }
                    ]
                }                
            },

                
        },
        
    },
}