{
    "baddies": [
        {
            "name": "flyer",
            "x": 0,
            "y": 0,
            "endX": 357,
            "endY": 147,
            "speedY": 0,
            "speedX": 3,
            "flipped": false,
            "movementType": "static",	  
        }        
    ],
    "startingPoint":
    {
        "x": 40,
        "y": 260,
       	"flipped": false
    },
    "mrtoggles":
    {
        "x": 505,
        "y": 169,
	"xscale": 1
    },
    "thedoor":
    {
        "x": 24,
        "y": 92
    }

}