{
    "baddies": [        
        {
            "name": "rockbird",
            "x": 12,
            "y": 166,
            "endX": 368,
            "endY": 166,
            "speedY": 0,
            "speedX": 5,
            "flipped": false,
            "movementType": "dynamic",    
        },
        {
            "name": "rockbird",
            "x": 348,
            "y": 336,
            "endX": 608,
            "endY": 256,
            "speedY": 0,
            "speedX": 5,
            "flipped": false,
            "movementType": "dynamic",    
        },  
        {
            "name": "rockbird",
            "x": 32,
            "y": 480,
            "endX": 356,
            "endY": 480,
            "speedY": 0,
            "speedX": 5,
            "flipped": false,
            "movementType": "dynamic",    
        },    
        {
            "name": "rock",
            "x": 675,
            "y": 346,
            "endX": 675,
            "endY": 626,
            "speedY": 8,
            "speedX": 0,
            "flipped": false,
            "movementType": "dynamic",    
        },             
    ],
    "startingPoint":
    {
        "x": 1038,
        "y": 504,
        "flipped": true
    },
     "toggles": [
        {
            "name": "toggles",
            "x": 1080,
            "y": 184,
            "xscale": -1  
        },
        {
            "name": "grandpatoggles",
            "x": 36,
            "y": 520,
            "xscale": 1  
        }                    
    ],
    "thedoor":
    {
        "x": 862,
        "y": 86
    }

}